D:\MicroServicesTask\api\src\main\java\models\Product.java
D:\MicroServicesTask\api\src\main\java\controllers\ProductController.java
D:\MicroServicesTask\api\src\main\java\exceptions\UnauthorizedException.java
D:\MicroServicesTask\api\src\main\java\models\Inventory.java
D:\MicroServicesTask\api\src\main\java\controllers\AuthenticationController.java
D:\MicroServicesTask\api\src\main\java\controllers\OrderProductCompositeController.java
D:\MicroServicesTask\api\src\main\java\exceptions\NotFoundException.java
D:\MicroServicesTask\api\src\main\java\exceptions\BadRequestException.java
D:\MicroServicesTask\api\src\main\java\models\ErrorResponse.java
D:\MicroServicesTask\api\src\main\java\models\OrderItemInventoryDTO.java
D:\MicroServicesTask\api\src\main\java\controllers\OrderController.java
D:\MicroServicesTask\api\src\main\java\models\LoginResponse.java
D:\MicroServicesTask\api\src\main\java\models\RegisterUser.java
D:\MicroServicesTask\api\src\main\java\models\OrderItem.java
D:\MicroServicesTask\api\src\main\java\exceptions\InvalidInputException.java
D:\MicroServicesTask\api\src\main\java\models\Order.java
D:\MicroServicesTask\api\src\main\java\models\ProductDetail.java
D:\MicroServicesTask\api\src\main\java\models\LoginRequest.java
